7.189189189189189033e-01,5.208333333333333044e-03,3.428571428571428742e-02,2.173913043478260809e-02,0.000000000000000000e+00,0.000000000000000000e+00
1.081081081081081141e-02,6.562500000000000000e-01,3.428571428571428742e-02,2.717391304347826012e-02,1.282051282051282007e-02,1.851851851851851749e-02
0.000000000000000000e+00,1.562500000000000000e-02,3.714285714285714413e-01,0.000000000000000000e+00,0.000000000000000000e+00,2.777777777777777624e-02
1.621621621621621712e-02,5.208333333333333044e-03,0.000000000000000000e+00,6.902173913043477826e-01,0.000000000000000000e+00,0.000000000000000000e+00
1.621621621621621712e-02,3.125000000000000000e-02,7.428571428571428825e-02,5.434782608695652023e-03,8.012820512820513219e-01,1.203703703703703637e-01
5.405405405405405705e-03,1.041666666666666609e-02,3.428571428571428742e-02,0.000000000000000000e+00,7.051282051282051211e-02,4.907407407407407551e-01
2.324324324324324453e-01,2.760416666666666852e-01,4.514285714285714013e-01,2.554347826086956763e-01,1.153846153846153910e-01,3.425925925925926152e-01
